[gd_resource type="DynamicFont" load_steps=2 format=2]

[sub_resource type="DynamicFontData" id=1]

font_path = "res://Assets/Fonts/Classic/Main_Bold.ttf"

[resource]

size = 37
use_mipmaps = true
use_filter = false
font_data = SubResource( 1 )
_sections_unfolded = [ "Font", "Settings" ]

