[gd_resource type="SpriteFrames" load_steps=3 format=2]

[ext_resource path="res://Assets/GFX/Classic/Sprites/SpaceShip/SpaceShip_Default.png" type="Texture" id=1]
[ext_resource path="res://Assets/GFX/Classic/Sprites/SpaceShip/SpaceShip_Invulnerable.png" type="Texture" id=2]

[resource]

animations = [ {
"frames": [ ExtResource( 1 ) ],
"loop": true,
"name": "Default",
"speed": 5.0
}, {
"frames": [ ExtResource( 2 ) ],
"loop": true,
"name": "Invulnerable",
"speed": 5.0
} ]

